{
  "id": "fiveloop",
  "nodes": [
    {
      "id": "c0",
      "sockets": [
        {
          "endpoint": {
            "element": "a0.1~c0.0",
            "index": 1
          }
        },
        {
          "index": 1,
          "endpoint": {
            "element": "c0.1~c1.1"
          }
        },
        {
          "index": 2,
          "endpoint": {
            "element": "c4.2~c0.2",
            "index": 1
          }
        }
      ],
      "metal": {
        "op": "EQ",
        "value": true
      },
      "properties": {}
    },
    {
      "id": "c1",
      "sockets": [
        {
          "endpoint": {
            "element": "a1.1~c1.0",
            "index": 1
          }
        },
        {
          "index": 1,
          "endpoint": {
            "element": "c0.1~c1.1",
            "index": 1
          }
        },
        {
          "index": 2,
          "endpoint": {
            "element": "c1.2~c2.1"
          }
        }
      ],
      "metal": {
        "op": "EQ",
        "value": true
      },
      "properties": {}
    },
    {
      "id": "c2",
      "sockets": [
        {
          "endpoint": {
            "element": "a2.1~c2.0",
            "index": 1
          }
        },
        {
          "index": 1,
          "endpoint": {
            "element": "c1.2~c2.1",
            "index": 1
          }
        },
        {
          "index": 2,
          "endpoint": {
            "element": "c2.2~c3.1"
          }
        }
      ],
      "metal": {
        "op": "EQ",
        "value": true
      },
      "properties": {}
    },
    {
      "id": "c3",
      "sockets": [
        {
          "endpoint": {
            "element": "a3.1~c3.0",
            "index": 1
          }
        },
        {
          "index": 1,
          "endpoint": {
            "element": "c2.2~c3.1",
            "index": 1
          }
        },
        {
          "index": 2,
          "endpoint": {
            "element": "c3.2~c4.1"
          }
        }
      ],
      "metal": {
        "op": "EQ",
        "value": true
      },
      "properties": {}
    },
    {
      "id": "c4",
      "sockets": [
        {
          "endpoint": {
            "element": "a4.1~c4.0",
            "index": 1
          }
        },
        {
          "index": 1,
          "endpoint": {
            "element": "c3.2~c4.1",
            "index": 1
          }
        },
        {
          "index": 2,
          "endpoint": {
            "element": "c4.2~c0.2"
          }
        }
      ],
      "metal": {
        "op": "EQ",
        "value": true
      },
      "properties": {}
    },
    {
      "id": "h0",
      "sockets": [
        {
          "endpoint": {
            "element": "h0.0~b0.0"
          }
        }
      ],
      "metal": {
        "op": "EQ",
        "value": true
      },
      "properties": {}
    },
    {
      "id": "b0",
      "sockets": [
        {
          "endpoint": {
            "element": "h0.0~b0.0",
            "index": 1
          }
        },
        {
          "index": 1,
          "endpoint": {
            "element": "b0.1~a0.0"
          }
        }
      ],
      "metal": {
        "op": "EQ",
        "value": true
      },
      "properties": {}
    },
    {
      "id": "a0",
      "sockets": [
        {
          "endpoint": {
            "element": "b0.1~a0.0",
            "index": 1
          }
        },
        {
          "index": 1,
          "endpoint": {
            "element": "a0.1~c0.0"
          }
        }
      ],
      "metal": {
        "op": "EQ",
        "value": true
      },
      "properties": {}
    },
    {
      "id": "h1",
      "sockets": [
        {
          "endpoint": {
            "element": "h1.0~b1.0"
          }
        }
      ],
      "metal": {
        "op": "EQ",
        "value": true
      },
      "properties": {}
    },
    {
      "id": "b1",
      "sockets": [
        {
          "endpoint": {
            "element": "h1.0~b1.0",
            "index": 1
          }
        },
        {
          "index": 1,
          "endpoint": {
            "element": "b1.1~a1.0"
          }
        }
      ],
      "metal": {
        "op": "EQ",
        "value": true
      },
      "properties": {}
    },
    {
      "id": "a1",
      "sockets": [
        {
          "endpoint": {
            "element": "b1.1~a1.0",
            "index": 1
          }
        },
        {
          "index": 1,
          "endpoint": {
            "element": "a1.1~c1.0"
          }
        }
      ],
      "metal": {
        "op": "EQ",
        "value": true
      },
      "properties": {}
    },
    {
      "id": "h2",
      "sockets": [
        {
          "endpoint": {
            "element": "h2.0~b2.0"
          }
        }
      ],
      "metal": {
        "op": "EQ",
        "value": true
      },
      "properties": {}
    },
    {
      "id": "b2",
      "sockets": [
        {
          "endpoint": {
            "element": "h2.0~b2.0",
            "index": 1
          }
        },
        {
          "index": 1,
          "endpoint": {
            "element": "b2.1~a2.0"
          }
        }
      ],
      "metal": {
        "op": "EQ",
        "value": true
      },
      "properties": {}
    },
    {
      "id": "a2",
      "sockets": [
        {
          "endpoint": {
            "element": "b2.1~a2.0",
            "index": 1
          }
        },
        {
          "index": 1,
          "endpoint": {
            "element": "a2.1~c2.0"
          }
        }
      ],
      "metal": {
        "op": "EQ",
        "value": true
      },
      "properties": {}
    },
    {
      "id": "h3",
      "sockets": [
        {
          "endpoint": {
            "element": "h3.0~b3.0"
          }
        }
      ],
      "metal": {
        "op": "EQ",
        "value": true
      },
      "properties": {}
    },
    {
      "id": "b3",
      "sockets": [
        {
          "endpoint": {
            "element": "h3.0~b3.0",
            "index": 1
          }
        },
        {
          "index": 1,
          "endpoint": {
            "element": "b3.1~a3.0"
          }
        }
      ],
      "metal": {
        "op": "EQ",
        "value": true
      },
      "properties": {}
    },
    {
      "id": "a3",
      "sockets": [
        {
          "endpoint": {
            "element": "b3.1~a3.0",
            "index": 1
          }
        },
        {
          "index": 1,
          "endpoint": {
            "element": "a3.1~c3.0"
          }
        }
      ],
      "metal": {
        "op": "EQ",
        "value": true
      },
      "properties": {}
    },
    {
      "id": "h4",
      "sockets": [
        {
          "endpoint": {
            "element": "h4.0~b4.0"
          }
        }
      ],
      "metal": {
        "op": "EQ",
        "value": true
      },
      "properties": {}
    },
    {
      "id": "b4",
      "sockets": [
        {
          "endpoint": {
            "element": "h4.0~b4.0",
            "index": 1
          }
        },
        {
          "index": 1,
          "endpoint": {
            "element": "b4.1~a4.0"
          }
        }
      ],
      "metal": {
        "op": "EQ",
        "value": true
      },
      "properties": {}
    },
    {
      "id": "a4",
      "sockets": [
        {
          "endpoint": {
            "element": "b4.1~a4.0",
            "index": 1
          }
        },
        {
          "index": 1,
          "endpoint": {
            "element": "a4.1~c4.0"
          }
        }
      ],
      "metal": {
        "op": "EQ",
        "value": true
      },
      "properties": {}
    }
  ],
  "links": [
    {
      "id": "h0.0~b0.0",
      "endpoints": [
        {
          "socket": {
            "element": "h0"
          }
        },
        {
          "index": 1,
          "socket": {
            "element": "b0"
          }
        }
      ],
      "properties": {}
    },
    {
      "id": "b0.1~a0.0",
      "endpoints": [
        {
          "socket": {
            "element": "b0",
            "index": 1
          }
        },
        {
          "index": 1,
          "socket": {
            "element": "a0"
          }
        }
      ],
      "properties": {}
    },
    {
      "id": "a0.1~c0.0",
      "endpoints": [
        {
          "socket": {
            "element": "a0",
            "index": 1
          }
        },
        {
          "index": 1,
          "socket": {
            "element": "c0"
          }
        }
      ],
      "properties": {}
    },
    {
      "id": "h1.0~b1.0",
      "endpoints": [
        {
          "socket": {
            "element": "h1"
          }
        },
        {
          "index": 1,
          "socket": {
            "element": "b1"
          }
        }
      ],
      "properties": {}
    },
    {
      "id": "b1.1~a1.0",
      "endpoints": [
        {
          "socket": {
            "element": "b1",
            "index": 1
          }
        },
        {
          "index": 1,
          "socket": {
            "element": "a1"
          }
        }
      ],
      "properties": {}
    },
    {
      "id": "a1.1~c1.0",
      "endpoints": [
        {
          "socket": {
            "element": "a1",
            "index": 1
          }
        },
        {
          "index": 1,
          "socket": {
            "element": "c1"
          }
        }
      ],
      "properties": {}
    },
    {
      "id": "h2.0~b2.0",
      "endpoints": [
        {
          "socket": {
            "element": "h2"
          }
        },
        {
          "index": 1,
          "socket": {
            "element": "b2"
          }
        }
      ],
      "properties": {}
    },
    {
      "id": "b2.1~a2.0",
      "endpoints": [
        {
          "socket": {
            "element": "b2",
            "index": 1
          }
        },
        {
          "index": 1,
          "socket": {
            "element": "a2"
          }
        }
      ],
      "properties": {}
    },
    {
      "id": "a2.1~c2.0",
      "endpoints": [
        {
          "socket": {
            "element": "a2",
            "index": 1
          }
        },
        {
          "index": 1,
          "socket": {
            "element": "c2"
          }
        }
      ],
      "properties": {}
    },
    {
      "id": "h3.0~b3.0",
      "endpoints": [
        {
          "socket": {
            "element": "h3"
          }
        },
        {
          "index": 1,
          "socket": {
            "element": "b3"
          }
        }
      ],
      "properties": {}
    },
    {
      "id": "b3.1~a3.0",
      "endpoints": [
        {
          "socket": {
            "element": "b3",
            "index": 1
          }
        },
        {
          "index": 1,
          "socket": {
            "element": "a3"
          }
        }
      ],
      "properties": {}
    },
    {
      "id": "a3.1~c3.0",
      "endpoints": [
        {
          "socket": {
            "element": "a3",
            "index": 1
          }
        },
        {
          "index": 1,
          "socket": {
            "element": "c3"
          }
        }
      ],
      "properties": {}
    },
    {
      "id": "h4.0~b4.0",
      "endpoints": [
        {
          "socket": {
            "element": "h4"
          }
        },
        {
          "index": 1,
          "socket": {
            "element": "b4"
          }
        }
      ],
      "properties": {}
    },
    {
      "id": "b4.1~a4.0",
      "endpoints": [
        {
          "socket": {
            "element": "b4",
            "index": 1
          }
        },
        {
          "index": 1,
          "socket": {
            "element": "a4"
          }
        }
      ],
      "properties": {}
    },
    {
      "id": "a4.1~c4.0",
      "endpoints": [
        {
          "socket": {
            "element": "a4",
            "index": 1
          }
        },
        {
          "index": 1,
          "socket": {
            "element": "c4"
          }
        }
      ],
      "properties": {}
    },
    {
      "id": "c0.1~c1.1",
      "endpoints": [
        {
          "socket": {
            "element": "c0",
            "index": 1
          }
        },
        {
          "index": 1,
          "socket": {
            "element": "c1",
            "index": 1
          }
        }
      ],
      "properties": {}
    },
    {
      "id": "c1.2~c2.1",
      "endpoints": [
        {
          "socket": {
            "element": "c1",
            "index": 2
          }
        },
        {
          "index": 1,
          "socket": {
            "element": "c2",
            "index": 1
          }
        }
      ],
      "properties": {}
    },
    {
      "id": "c2.2~c3.1",
      "endpoints": [
        {
          "socket": {
            "element": "c2",
            "index": 2
          }
        },
        {
          "index": 1,
          "socket": {
            "element": "c3",
            "index": 1
          }
        }
      ],
      "properties": {}
    },
    {
      "id": "c3.2~c4.1",
      "endpoints": [
        {
          "socket": {
            "element": "c3",
            "index": 2
          }
        },
        {
          "index": 1,
          "socket": {
            "element": "c4",
            "index": 1
          }
        }
      ],
      "properties": {}
    },
    {
      "id": "c4.2~c0.2",
      "endpoints": [
        {
          "socket": {
            "element": "c4",
            "index": 2
          }
        },
        {
          "index": 1,
          "socket": {
            "element": "c0",
            "index": 2
          }
        }
      ],
      "properties": {}
    }
  ],
  "parameters": {}
}