{
  "id": "test",
  "nodes": [
    {
      "id": "n0",
      "sockets": [
        {
          "endpoint": {
            "element": "n0.0~v1.0"
          }
        },
        {
          "index": 1,
          "endpoint": {
            "element": "v3.1~n0.1",
            "index": 1
          }
        },
        {
          "index": 2,
          "endpoint": {
            "element": "n0.2~v1.2~v2.2~v3.2"
          }
        }
      ],
      "metal": {
        "op": "EQ",
        "value": true
      },
      "properties": {}
    },
    {
      "id": "v1",
      "sockets": [
        {
          "endpoint": {
            "element": "n0.0~v1.0",
            "index": 1
          }
        },
        {
          "index": 1,
          "endpoint": {
            "element": "v1.1~v2.0"
          }
        },
        {
          "index": 2,
          "endpoint": {
            "element": "n0.2~v1.2~v2.2~v3.2",
            "index": 1
          }
        }
      ],
      "metal": {
        "op": "EQ"
      },
      "properties": {}
    },
    {
      "id": "v2",
      "sockets": [
        {
          "endpoint": {
            "element": "v1.1~v2.0",
            "index": 1
          }
        },
        {
          "index": 1,
          "endpoint": {
            "element": "v2.1~v3.0"
          }
        },
        {
          "index": 2,
          "endpoint": {
            "element": "n0.2~v1.2~v2.2~v3.2",
            "index": 2
          }
        }
      ],
      "metal": {
        "op": "EQ"
      },
      "properties": {}
    },
    {
      "id": "v3",
      "sockets": [
        {
          "endpoint": {
            "element": "v2.1~v3.0",
            "index": 1
          }
        },
        {
          "index": 1,
          "endpoint": {
            "element": "v3.1~n0.1"
          }
        },
        {
          "index": 2,
          "endpoint": {
            "element": "n0.2~v1.2~v2.2~v3.2",
            "index": 3
          }
        }
      ],
      "memory": {
        "capacity": {
          "op": "GE",
          "value": "34359738368"
        }
      },
      "properties": {}
    }
  ],
  "links": [
    {
      "id": "n0.0~v1.0",
      "endpoints": [
        {
          "socket": {
            "element": "n0"
          }
        },
        {
          "index": 1,
          "socket": {
            "element": "v1"
          }
        }
      ],
      "properties": {}
    },
    {
      "id": "v1.1~v2.0",
      "endpoints": [
        {
          "socket": {
            "element": "v1",
            "index": 1
          }
        },
        {
          "index": 1,
          "socket": {
            "element": "v2"
          }
        }
      ],
      "properties": {}
    },
    {
      "id": "v2.1~v3.0",
      "endpoints": [
        {
          "socket": {
            "element": "v2",
            "index": 1
          }
        },
        {
          "index": 1,
          "socket": {
            "element": "v3"
          }
        }
      ],
      "properties": {}
    },
    {
      "id": "v3.1~n0.1",
      "endpoints": [
        {
          "socket": {
            "element": "v3",
            "index": 1
          }
        },
        {
          "index": 1,
          "socket": {
            "element": "n0",
            "index": 1
          }
        }
      ],
      "properties": {}
    },
    {
      "id": "n0.2~v1.2~v2.2~v3.2",
      "endpoints": [
        {
          "socket": {
            "element": "n0",
            "index": 2
          }
        },
        {
          "index": 1,
          "socket": {
            "element": "v1",
            "index": 2
          }
        },
        {
          "index": 2,
          "socket": {
            "element": "v2",
            "index": 2
          }
        },
        {
          "index": 3,
          "socket": {
            "element": "v3",
            "index": 2
          }
        }
      ],
      "properties": {}
    }
  ],
  "parameters": {}
}